<svg width="96" height="83" viewBox="0 0 96 83" fill="none" xmlns="http://www.w3.org/2000/svg">
<path d="M69.8163 19.7547C70.5807 19.8309 70.5807 20.7618 69.8163 20.838L63.4038 21.4766C55.1236 22.3012 48.5953 27.7803 47.6129 34.7297L46.852 40.1115C46.7612 40.7532 45.6521 40.7532 45.5613 40.1115L44.8004 34.7297C43.8179 27.7803 37.2896 22.3012 29.0095 21.4766L22.5971 20.838C21.8326 20.7618 21.8326 19.8309 22.5971 19.7547L29.0095 19.1162C37.2896 18.2916 43.8179 12.8125 44.8004 5.86302L45.5613 0.481148C45.6521 -0.160384 46.7612 -0.160384 46.852 0.481148L47.6129 5.86302C48.5953 12.8125 55.1236 18.2916 63.4038 19.1162L69.8163 19.7547Z" fill="#07A081"/>
<path d="M94.8629 40.4829C95.6273 40.5591 95.6273 41.49 94.8629 41.5662L88.4504 42.2048C80.1702 43.0294 73.6419 48.5085 72.6595 55.4579L71.8986 60.8398C71.8078 61.4814 70.6987 61.4814 70.6079 60.8398L69.847 55.4579C68.8645 48.5085 62.3362 43.0294 54.0561 42.2048L47.6437 41.5662C46.8792 41.49 46.8792 40.5591 47.6437 40.4829L54.0561 39.8444C62.3362 39.0198 68.8645 33.5407 69.847 26.5912L70.6079 21.2094C70.6987 20.5678 71.8078 20.5678 71.8986 21.2094L72.6595 26.5912C73.6419 33.5407 80.1702 39.0198 88.4504 39.8444L94.8629 40.4829Z" fill="#07A081"/>
<path d="M70.68 61.2112C71.4443 61.2873 71.4443 62.2183 70.6799 62.2944L64.2675 62.933C55.9873 63.7576 49.459 69.2367 48.4765 76.1861L47.7157 81.568C47.6249 82.2096 46.5157 82.2096 46.425 81.568L45.6641 76.1861C44.6816 69.2367 38.1533 63.7576 29.8732 62.933L23.4607 62.2944C22.6963 62.2183 22.6963 61.2873 23.4607 61.2112L29.8732 60.5726C38.1533 59.748 44.6816 54.2689 45.6641 47.3194L46.425 41.9376C46.5157 41.296 47.6249 41.296 47.7157 41.9376L48.4765 47.3194C49.459 54.2689 55.9873 59.748 64.2675 60.5726L70.68 61.2112Z" fill="#07A081"/>
<path d="M47.7926 40.9148C48.5569 40.991 48.5569 41.9219 47.7926 41.9981L41.3801 42.6367C33.0999 43.4612 26.5716 48.9404 25.5891 55.8897L24.8283 61.2716C24.7375 61.9132 23.6283 61.9132 23.5376 61.2716L22.7767 55.8897C21.7942 48.9404 15.2659 43.4612 6.9858 42.6367L0.573356 41.9981C-0.191113 41.9219 -0.191113 40.991 0.573356 40.9148L6.9858 40.2762C15.2659 39.4516 21.7942 33.9725 22.7767 27.0231L23.5376 21.6412C23.6283 20.9997 24.7375 20.9997 24.8283 21.6412L25.5891 27.0231C26.5716 33.9725 33.0999 39.4516 41.3801 40.2762L47.7926 40.9148Z" fill="#07A081"/>
</svg>
