<svg width="7" height="20" viewBox="0 0 7 20" fill="none" xmlns="http://www.w3.org/2000/svg">
<path d="M5.10309 1.50519V1.50519C0.405825 6.20246 0.405825 13.8182 5.10309 18.5155V18.5155" stroke="black" stroke-width="2" stroke-linecap="round" stroke-linejoin="round"/>
</svg>
